{
    "name": "friend",
    "base": "socialMedia",
    "idInjection": true,
    "options": {
      "validateUpsert": true
    },
    "properties": {
        "userA": {
            "type": "number",
            "required": true
        },
        "userB": {
            "type": "number",
            "required": true
        }
    },
    "validations": [],
    "relations": {
        "userA": {
            "type": "belongsTo",
            "model": "user",
            "foreignKey": "userA"
        },
        "userB": {
            "type": "belongsTo",
            "model": "user",
            "foreignKey": "userB"
        }
    },
    "acls": [
        {
            "principalType": "ROLE",
            "principalId": "$authenticated",
            "permission": "ALLOW",
            "accessType": "*"
        }
    ],
    "methods": {}
  }
  