{
  "name": "user",
  "base": "User",
  "idInjection": true,
  "options": {
    "validateUpsert": true
  },
  "hidden": [
    "active",
    "created",
    "creatorId",
    "creationLat",
    "creationLong",
    "modified",
    "modifierId",
    "modificationLat",
    "modificationLong"
  ],
  "properties": {
    "realm": false,
    "status": false,
    "lastUpdated": false,
    "credentials": false,
    "challenges": false,
    "verificationToken": false,
    "username": {
      "type": "string",
      "required": true
    },
    "firstName": {
      "type": "string",
      "required": true
    },
    "lastName": {
      "type": "string",
      "required": true
    },
    "password": {
      "type": "string",
      "required": false
    },
    "active": {
      "type": "boolean"
    }
  },
  "validations": [],
  "relations": {
  },
  "acls": [
    {
      "principalType": "ROLE",
      "principalId": "$everyone",
      "permission": "DENY"
    },
    {
      "principalType": "ROLE",
      "principalId": "$owner",
      "permission": "ALLOW",
      "accessType": "*"
    },
    {
      "principalType": "ROLE",
      "principalId": "$authenticated",
      "permission": "ALLOW",
      "accessType": "*",
      "property": "exists"
    }
  ],
  "methods": {}
}
